wave.vcd
$date
	Wed Dec 10 12:49:25 2025
$end
$version
	Icarus Verilog
$end
$timescale
	1ps
$end
$scope module top $end
$var wire 1 ! rx $end
$var wire 8 " result [7:0] $end
$var reg 1 # clk $end
$var reg 1 $ rst $end
$scope module TB $end
$var wire 1 # clk $end
$var wire 1 $ rst $end
$var wire 8 % result [7:0] $end
$var reg 1 ! rx $end
$var reg 8 & message [7:0] $end
$var reg 9 ' signal [8:0] $end
$scope begin $ivl_for_loop0 $end
$var reg 8 ( i [7:0] $end
$upscope $end
$upscope $end
$scope module dut $end
$var wire 1 # clk $end
$var wire 1 $ rst $end
$var wire 1 ! rx $end
$var reg 1 ) current_state $end
$var reg 8 * result [7:0] $end
$var integer 32 + received_bit [31:0] $end
$upscope $end
$upscope $end
$enddefinitions $end
#0
$dumpvars
b0 +
bx *
0)
b0 (
b111110100 '
b11111010 &
bx %
1$
0#
bx "
1!
$end
#5000
0$
1#
#10000
0#
#15000
b1 (
0!
1#
#20000
0#
#25000
1)
b10 (
1#
#30000
0#
#35000
b1 +
bx0 "
bx0 %
bx0 *
b11 (
1!
1#
#40000
0#
#45000
b10 +
bx10 "
bx10 %
bx10 *
b100 (
0!
1#
#50000
0#
#55000
b11 +
bx010 "
bx010 %
bx010 *
b101 (
1!
1#
#60000
0#
#65000
b100 +
bx1010 "
bx1010 %
bx1010 *
b110 (
1#
#70000
0#
#75000
b101 +
bx11010 "
bx11010 %
bx11010 *
b111 (
1#
#80000
0#
#85000
b110 +
bx111010 "
bx111010 %
bx111010 *
b1000 (
1#
#90000
0#
#95000
b111 +
bx1111010 "
bx1111010 %
bx1111010 *
b1001 (
1#
#100000
0#
#105000
b1000 +
b11111010 "
b11111010 %
b11111010 *
1#
#110000
0#
#115000
0)
b0 +
1#
